Chapter 3 Exploratory Data Analysis | Statistics for Soil Survey - Part 1
…
# Examine matching pairs (long format)
h %>% group_by(genhz, hzname) %>% count()

## # A tibble: 43 x 3
## # Groups:   genhz, hzname [43]
##    genhz hzname     n
##    <fct> <chr>  <int>
##  1 A     A         97
##  2 A     A1         7
##  3 A     A2         7
##  4 A     Ad         1
##  5 A     Ap         1
##  6 BAt   AB         1
##  7 BAt   BA        31
##  8 BAt   BAt        8
##  9 Bt1   ABt        2
## 10 Bt1   Bt         8
## # ... with 33 more rows
…
